<svg id="building" xmlns="http://www.w3.org/2000/svg" width="31.316" height="30" viewBox="0 0 31.316 30">
  <path id="Union" d="M29.75,30H1.566a1.566,1.566,0,0,1,0-3.131H3.131V7.049A4.691,4.691,0,0,1,6.69,2.492l9.4-2.349A4.689,4.689,0,0,1,21.922,4.7V8.078h1.566a4.7,4.7,0,0,1,4.7,4.7V26.869H29.75a1.566,1.566,0,0,1,0,3.131ZM21.922,11.211V26.869h3.131V12.776a1.567,1.567,0,0,0-1.566-1.566Zm-4.7-8.077a1.58,1.58,0,0,0-.382.047L7.449,5.53A1.562,1.562,0,0,0,6.263,7.049v19.82H18.789V4.7A1.566,1.566,0,0,0,17.227,3.134Z" transform="translate(0)" fill="#041d3a"/>
  <path id="Vector_511_Stroke_" data-name="Vector 511 (Stroke)" d="M0,1.566A1.566,1.566,0,0,1,1.566,0H4.7a1.566,1.566,0,1,1,0,3.132H1.566A1.566,1.566,0,0,1,0,1.566Z" transform="translate(9.395 20.605)" fill="#041d3a"/>
  <path id="Vector_512_Stroke_" data-name="Vector 512 (Stroke)" d="M0,1.566A1.566,1.566,0,0,1,1.566,0H4.7a1.566,1.566,0,1,1,0,3.132H1.566A1.566,1.566,0,0,1,0,1.566Z" transform="translate(9.395 14.342)" fill="#041d3a"/>
  <path id="Vector_513_Stroke_" data-name="Vector 513 (Stroke)" d="M0,1.566A1.566,1.566,0,0,1,1.566,0H4.7a1.566,1.566,0,1,1,0,3.132H1.566A1.566,1.566,0,0,1,0,1.566Z" transform="translate(9.395 8.079)" fill="#041d3a"/>
</svg>
