<svg id="Group_6681" data-name="Group 6681" xmlns="http://www.w3.org/2000/svg" width="205.381" height="62.419" viewBox="0 0 205.381 62.419">
  <path id="Path_17570" data-name="Path 17570" d="M597.364-1042.974q-47.23,0-94.461.006a8.046,8.046,0,0,1-6.116-2.594,7.385,7.385,0,0,1-2.1-5.187q-.029-23.507,0-47.013a7.989,7.989,0,0,1,7.5-7.608c.405-.014.811-.007,1.217-.007q94.113,0,188.227-.011a7.82,7.82,0,0,1,7.416,4.235A7.852,7.852,0,0,1,700-1097.6q.094,23.419.036,46.839a7.982,7.982,0,0,1-7.693,7.781c-.463.011-.927.007-1.39.007Zm-91.159-51.05v41.507l21.47-20.756Zm28.664,13.8c-8.708-5.425-17.9-9.672-26.837-14.381l-.13.172,20.832,20.138Zm63.291,23.814c.42.264.741.506,1.095.681a11.114,11.114,0,0,0,6.6.958c2.972-.412,4.769-2.049,4.942-5.042.226-3.919.071-7.86.077-11.792,0-.022-.034-.045-.068-.086h-2.6c-.042.487-.077.894-.119,1.379a6.713,6.713,0,0,0-8.892.2,6.222,6.222,0,0,0-.466,7.83c1.987,2.674,5.46,3.062,9.172,1.023a3.141,3.141,0,0,1-2.607,4.019,7.66,7.66,0,0,1-5.189-.932c-.215-.118-.432-.233-.675-.364Zm-69.332-15.924-20.48,19.793.151.223,25.517-14.206Zm33.122,4.687c0,1.537-.022,2.978.011,4.417.012.525-.18.867-.663.955a15.7,15.7,0,0,1-3.232.454,5.177,5.177,0,0,1-4.766-3.094,5.681,5.681,0,0,1,.489-6.012,6.2,6.2,0,0,1,8.486-1.146c.295.213.582.438.762.574l1.949-1.746c-.229-.241-.393-.441-.585-.61a6.442,6.442,0,0,0-.752-.585,9.313,9.313,0,0,0-7.171-1.231,7.806,7.806,0,0,0-6.522,5.985,8.008,8.008,0,0,0,2.954,8.828,10.183,10.183,0,0,0,11.5-.032,1.369,1.369,0,0,0,.406-.946c.04-1.707.021-3.415.015-5.122a6.356,6.356,0,0,0-.077-.688Zm83.761,3.6c.616,0,1.1.018,1.59,0a35.85,35.85,0,0,0,4.325-.244,5.334,5.334,0,0,0,4.7-5.229,5.357,5.357,0,0,0-4.236-5.776,9.177,9.177,0,0,0-2.228-.325c-2.258-.043-4.518-.02-6.778-.016a1.166,1.166,0,0,0-.319.1v16.129h2.95Zm-115.279-9.3c1.514,1.677,3.187,3.557,4.911,5.391a1.043,1.043,0,0,0,.947,0c2.523-1.414,5.028-2.86,7.527-4.318a1.508,1.508,0,0,0,0-2.836q-3-1.749-6.012-3.47c-1.571-.9-1.617-.941-2.878.36C533.3-1076.542,531.754-1074.786,530.431-1073.346Zm101.9,12.133-1.525-1.74a4.938,4.938,0,0,1-5.585.8,2.967,2.967,0,0,1-1.777-2.465h.849q4.037,0,8.073,0c.419,0,.768.034.823-.586a6.158,6.158,0,0,0-4.263-6.429,6.563,6.563,0,0,0-7.675,2.869,6.547,6.547,0,0,0,1.534,8.178c2.5,1.932,6.91,1.885,9.063-.1C631.992-1060.82,632.116-1060.979,632.327-1061.213Zm41.12-5.4c-.959,0-1.94-.069-2.907.018a12.479,12.479,0,0,0-3.308.553,3.384,3.384,0,0,0-1.082,5.545,4.591,4.591,0,0,0,3.046,1.295,5.408,5.408,0,0,0,4.448-1.406l.129,1.208h2.586c0-2.911.083-5.769-.035-8.618a3.591,3.591,0,0,0-2.233-3.2,8.791,8.791,0,0,0-8.083.538.723.723,0,0,0-.24.662,18.356,18.356,0,0,0,.908,1.688c.306-.174.523-.309.75-.426a6.012,6.012,0,0,1,4.292-.573A2.253,2.253,0,0,1,673.447-1066.608Zm-84.331,7.429c3.9,0,6.67-2.629,6.677-6.342.006-3.731-2.749-6.386-6.632-6.39s-6.627,2.64-6.617,6.386A6.233,6.233,0,0,0,589.116-1059.179Zm-15.064,0c3.9.031,6.688-2.592,6.7-6.307.016-3.759-2.689-6.4-6.585-6.421-3.841-.023-6.66,2.62-6.674,6.258A6.264,6.264,0,0,0,574.051-1059.18Zm117.55-12.591c-.775,0-1.4.04-2.027-.011a.957.957,0,0,0-1.088.734c-.7,1.715-1.438,3.412-2.168,5.113-.45,1.049-.911,2.094-1.429,3.285-.2-.422-.33-.676-.442-.938-1.066-2.5-2.119-5.01-3.206-7.5-.117-.269-.416-.62-.659-.644-.823-.081-1.658-.031-2.611-.031.189.465.321.81.467,1.148,1.543,3.556,3.1,7.1,4.613,10.675a1.8,1.8,0,0,1,.007,1.279,2.31,2.31,0,0,1-3.557,1.195c-.224-.116-.444-.239-.718-.387l-1.15,2.116a12.267,12.267,0,0,0,1.408.735,4.842,4.842,0,0,0,6.5-2.793c1.641-3.671,3.208-7.374,4.807-11.064C690.746-1069.783,691.142-1070.7,691.6-1071.771Zm-74,12.388v-17.155h-2.784v17.155Zm41.78-17.193v17.159h2.779v-17.159Zm-66.241-9.655c1.725,1.754,3.766,1.952,5.311.64a3.8,3.8,0,0,0,.472-5.109,4.414,4.414,0,0,0-2.056-1.3,3.53,3.53,0,0,0-3.746,1.381c0-1.381.023-2.534-.017-3.686a2.51,2.51,0,0,0-.355-.819,2.332,2.332,0,0,0-.31.767c-.023,2.95-.017,5.9-.017,8.851a1.255,1.255,0,0,0,.027.429c.043.112.192.284.255.268.134-.033.325-.154.347-.267A9.608,9.608,0,0,0,593.14-1086.23Zm-32.909,1.54.235-.266c-1.413-3.07-2.822-6.143-4.251-9.205-.079-.17-.374-.393-.5-.356a1.056,1.056,0,0,0-.6.489c-1.327,2.829-2.629,5.67-3.933,8.51a6.572,6.572,0,0,0-.217.629l.2.189c.228-.2.6-.366.659-.606.457-1.991,1.725-2.59,3.613-2.228a1.429,1.429,0,0,0,.519,0c1.88-.352,3.151.233,3.6,2.229C559.61-1085.063,560-1084.894,560.231-1084.69Zm28.513-1.083c.058.149.081.223.114.292.106.229.216.458.324.686.122-.242.342-.482.349-.727.033-1.328.027-2.658.007-3.988a2.262,2.262,0,0,0-1.27-2.287,4.168,4.168,0,0,0-4.048.426c-.131.084-.145.351-.213.534a2.619,2.619,0,0,0,.52-.033,10.725,10.725,0,0,1,2.3-.6c1.514-.039,2.251,1.048,1.851,2.666-.975,0-1.985-.058-2.986.015a1.965,1.965,0,0,0-2.063,2,2.11,2.11,0,0,0,2.084,2.033A3.425,3.425,0,0,0,588.744-1085.773Zm-15.431-3.022c-1.046,0-2.057-.06-3.058.015a1.956,1.956,0,0,0-2.044,1.932,2.1,2.1,0,0,0,2.037,2.08,3.293,3.293,0,0,0,3.089-1.042c.056.178.073.259.106.334.1.231.209.46.314.69.123-.241.348-.48.353-.723.025-1.415.011-2.832-.015-4.248a2.191,2.191,0,0,0-1.007-1.911,4.332,4.332,0,0,0-4.349.333c-.107.1-.1.324-.143.49a1.258,1.258,0,0,0,.455.021,11.743,11.743,0,0,1,1.688-.626C572.582-1091.782,573.6-1090.789,573.313-1088.8Zm86.718.54a3.362,3.362,0,0,0-2.229-3.685,3.45,3.45,0,0,0-4.132,1.525,3.955,3.955,0,0,0,.57,4.657,3.957,3.957,0,0,0,4.739.443c.294-.2.882-.39.35-.942-2.784,1.62-5.333.716-5.4-2Zm-14.761-2.48c0-1.4.022-2.539-.018-3.679-.008-.242-.242-.477-.372-.715a2.033,2.033,0,0,0-.3.694q-.03,4.472,0,8.945a2.06,2.06,0,0,0,.295.7c.131-.238.367-.472.376-.715.047-1.185-.018-2.375.056-3.558a2.518,2.518,0,0,1,2.822-2.424c1.456.057,2.221.9,2.244,2.519.017,1.216-.009,2.432.025,3.647.005.18.237.353.364.529.1-.172.293-.344.3-.518.019-1.389.056-2.781-.018-4.167a2.633,2.633,0,0,0-2.772-2.632A3.562,3.562,0,0,0,645.269-1090.735Zm-39.876,2.47h6.168a3.592,3.592,0,0,0,.059-.443,3.421,3.421,0,0,0-2.742-3.341,3.4,3.4,0,0,0-3.927,2.116,3.827,3.827,0,0,0,1.351,4.613,3.985,3.985,0,0,0,4.407-.151c.44-.368.44-.368,0-.779a3.219,3.219,0,0,1-3.7.561A2.709,2.709,0,0,1,605.393-1088.266Zm11.215-.261a3.532,3.532,0,0,0,3.524,3.79,3.558,3.558,0,0,0,3.745-3.674,3.548,3.548,0,0,0-3.538-3.7A3.528,3.528,0,0,0,616.608-1088.527Zm10.165-2.2a3.679,3.679,0,0,0-.066-.531c-.088-.266-.2-.525-.294-.787-.124.268-.351.534-.356.8q-.047,2.867,0,5.734c0,.24.235.477.361.715a2.055,2.055,0,0,0,.3-.682c.035-1.157-.02-2.318.038-3.474a2.557,2.557,0,0,1,2.817-2.544c1.494.038,2.244.881,2.267,2.579.016,1.187-.01,2.375.023,3.562.005.19.225.375.345.563.113-.165.321-.329.323-.495.014-1.447.057-2.9-.038-4.341a2.523,2.523,0,0,0-2.461-2.466A3.451,3.451,0,0,0,626.773-1090.726Zm-66.114-1.427-.3.228c.982,2.185,1.955,4.376,2.961,6.55.113.244.427.567.627.553.22-.015.491-.343.609-.595.82-1.756,1.606-3.528,2.4-5.3.182-.406.353-.818.529-1.227l-.269-.2a3.147,3.147,0,0,0-.617.682c-.676,1.44-1.311,2.9-1.965,4.35-.205.455-.425.9-.71,1.51-.92-2.059-1.744-3.937-2.6-5.8A3.607,3.607,0,0,0,560.659-1092.153Zm78.488.726c0,.642-.006,1.216,0,1.789.014,1.128-.014,2.26.069,3.383a1.565,1.565,0,0,0,1.461,1.484,1.637,1.637,0,0,0,1.819-.651,1.7,1.7,0,0,0-.874.038c-.922.207-1.657-.137-1.7-.977-.084-1.665-.025-3.337-.025-5.052l2.269-.145.018-.389-2.351-.193a10.988,10.988,0,0,0-.014-1.133c-.013-.127-.184-.237-.283-.355-.127.119-.345.226-.364.36a8.571,8.571,0,0,0-.018,1.162,7.155,7.155,0,0,0-.955.063c-.132.027-.237.183-.354.281.12.093.229.241.362.267A7.433,7.433,0,0,0,639.146-1091.427Zm-57.8,1.461c0-1.5.014-3.006-.016-4.508,0-.219-.223-.433-.343-.649-.112.224-.321.447-.322.672q-.033,4.508,0,9.016c0,.215.225.429.345.643.113-.222.319-.442.323-.666C581.363-1086.961,581.349-1088.464,581.347-1089.967Zm20.5,0c0,1.5-.014,3.01.015,4.514,0,.221.214.437.329.656.118-.217.338-.434.34-.652q.033-4.514,0-9.028c0-.219-.222-.437-.341-.656-.114.217-.322.433-.326.652C601.83-1092.971,601.844-1091.466,601.844-1089.962Zm-24.833,1.488c0,1.042-.018,2.084.016,3.125.006.191.22.375.339.563.114-.192.326-.383.329-.576q.035-3.082,0-6.164c0-.174-.2-.345-.3-.517-.126.177-.356.35-.362.532C576.99-1090.5,577.008-1089.487,577.01-1088.474Zm.336-6.684c-.246.351-.527.576-.5.761a.737.737,0,0,0,.524.5c.178,0,.482-.319.5-.518S577.6-1094.814,577.346-1095.158Z" transform="translate(-494.67 1105.387)" fill="#4f9fb7"/>
  <path id="Path_17571" data-name="Path 17571" d="M1107.265-891.552a3.528,3.528,0,0,1-3.814-3.514,3.5,3.5,0,0,1,3.749-3.565,3.511,3.511,0,0,1,3.819,3.5A3.527,3.527,0,0,1,1107.265-891.552Z" transform="translate(-997.622 934.573)" fill="#4f9fb7"/>
  <path id="Path_17572" data-name="Path 17572" d="M1363.518-913.1c0-1.98-.011-3.914.019-5.846,0-.169.273-.481.417-.48a36.74,36.74,0,0,1,4.5.14,2.85,2.85,0,0,1,2.644,3.024,2.843,2.843,0,0,1-2.627,3.123A44.178,44.178,0,0,1,1363.518-913.1Z" transform="translate(-1212.478 951.758)" fill="#4f9fb7"/>
  <path id="Path_17573" data-name="Path 17573" d="M1242.564-896.523h-6.854a3.164,3.164,0,0,1,3.133-2.984A3.384,3.384,0,0,1,1242.564-896.523Z" transform="translate(-1106.89 935.307)" fill="#4f9fb7"/>
  <path id="Path_17574" data-name="Path 17574" d="M1497.355-871.189c.276,1.516-.066,2.317-1.19,2.93a3.571,3.571,0,0,1-3.694-.127,1.5,1.5,0,0,1,.379-2.5,5.788,5.788,0,0,1,1.775-.286C1495.54-871.222,1496.459-871.189,1497.355-871.189Z" transform="translate(-1318.593 911.911)" fill="#4f9fb7"/>
  <path id="Path_17575" data-name="Path 17575" d="M1017.049-894.738a3.6,3.6,0,0,1,3.648-3.872,3.624,3.624,0,0,1,3.722,3.813,3.644,3.644,0,0,1-3.664,3.963A3.6,3.6,0,0,1,1017.049-894.738Z" transform="translate(-926.24 934.555)" fill="#4f9fb7"/>
  <path id="Path_17576" data-name="Path 17576" d="M930.526-894.835a3.614,3.614,0,0,1,3.726-3.809,3.664,3.664,0,0,1,3.667,3.886,3.641,3.641,0,0,1-3.739,3.894A3.638,3.638,0,0,1,930.526-894.835Z" transform="translate(-854.758 934.584)" fill="#4f9fb7"/>
  <path id="Path_17577" data-name="Path 17577" d="M1066.808-1022.352a2.863,2.863,0,0,1-2.985,3.012,2.87,2.87,0,0,1-2.859-3.053,2.9,2.9,0,0,1,2.945-3.069A2.9,2.9,0,0,1,1066.808-1022.352Z" transform="translate(-962.521 1039.356)" fill="#4f9fb7"/>
  <path id="Path_17578" data-name="Path 17578" d="M831.248-1032.92l2.507-5.526,2.524,5.526Z" transform="translate(-772.738 1050.083)" fill="#4f9fb7"/>
  <path id="Path_17579" data-name="Path 17579" d="M1014.9-1006.8c.619,2.315-1.748,3.357-3.345,2.789a1.387,1.387,0,0,1-1.066-1.488,1.283,1.283,0,0,1,1.28-1.284C1012.8-1006.855,1013.832-1006.8,1014.9-1006.8Z" transform="translate(-920.816 1023.956)" fill="#4f9fb7"/>
  <path id="Path_17580" data-name="Path 17580" d="M926.2-1006.751a2.074,2.074,0,0,1-.812,2.463,2.755,2.755,0,0,1-2.8.2,1.324,1.324,0,0,1-.78-1.5,1.257,1.257,0,0,1,1.219-1.151C924.057-1006.8,925.094-1006.751,926.2-1006.751Z" transform="translate(-847.54 1023.912)" fill="#4f9fb7"/>
  <path id="Path_17581" data-name="Path 17581" d="M1416.415-1022.894h-5.372a2.6,2.6,0,0,1,2.719-2.651A2.616,2.616,0,0,1,1416.415-1022.894Z" transform="translate(-1251.744 1039.424)" fill="#4f9fb7"/>
  <path id="Path_17582" data-name="Path 17582" d="M1131.743-1022.914c.283-1.779,1.413-2.75,2.956-2.641a2.616,2.616,0,0,1,2.489,2.641Z" transform="translate(-1020.996 1039.439)" fill="#4f9fb7"/>
  <path id="Path_17583" data-name="Path 17583" d="M1206.038-1022.324a2.874,2.874,0,0,1-2.884,3.025,2.888,2.888,0,0,1-2.948-3.138,2.87,2.87,0,0,1,2.927-2.981A2.889,2.889,0,0,1,1206.038-1022.324Z" transform="translate(-1077.558 1039.319)" fill="#4f9fb7"/>
</svg>
