<svg xmlns="http://www.w3.org/2000/svg" xmlns:xlink="http://www.w3.org/1999/xlink" width="31.736" height="31.736" viewBox="0 0 31.736 31.736">
  <defs>
    <clipPath id="clip-path">
      <rect id="Rectangle_1629" data-name="Rectangle 1629" width="31.736" height="31.736" fill="#041d3a"/>
    </clipPath>
  </defs>
  <g id="Group_6320" data-name="Group 6320" clip-path="url(#clip-path)">
    <path id="Path_17534" data-name="Path 17534" d="M19.113.938V4.255a.938.938,0,1,1-1.875,0V.938a.938.938,0,1,1,1.875,0" transform="translate(-2.307)" fill="#041d3a"/>
    <path id="Path_17535" data-name="Path 17535" d="M19.113,31.582V34.9a.939.939,0,0,1-1.6.663.923.923,0,0,1-.274-.663V31.582a.938.938,0,0,1,1.875,0" transform="translate(-2.307 -4.101)" fill="#041d3a"/>
    <path id="Path_17536" data-name="Path 17536" d="M8.991,8.991a.956.956,0,0,1-1.327,0L5.319,6.647A.939.939,0,0,1,6.647,5.319L8.991,7.664a.935.935,0,0,1,0,1.327" transform="translate(-0.675 -0.675)" fill="#041d3a"/>
    <path id="Path_17537" data-name="Path 17537" d="M30.659,30.659a.935.935,0,0,1-1.327,0l-2.345-2.344a.939.939,0,0,1,1.328-1.328l2.344,2.345a.935.935,0,0,1,0,1.327" transform="translate(-3.575 -3.575)" fill="#041d3a"/>
    <path id="Path_17538" data-name="Path 17538" d="M5.194,18.175a.946.946,0,0,1-.938.938H.938a.938.938,0,0,1,0-1.876H4.255a.94.94,0,0,1,.938.938" transform="translate(0 -2.307)" fill="#041d3a"/>
    <path id="Path_17539" data-name="Path 17539" d="M35.838,18.175a.945.945,0,0,1-.937.938H31.582a.938.938,0,1,1,0-1.876H34.9a.936.936,0,0,1,.937.938" transform="translate(-4.101 -2.307)" fill="#041d3a"/>
    <path id="Path_17540" data-name="Path 17540" d="M9.266,27.651a.906.906,0,0,1-.275.663L6.648,30.659a.958.958,0,0,1-1.327,0,.931.931,0,0,1,0-1.32l2.344-2.352a.961.961,0,0,1,.663-.274.932.932,0,0,1,.663.274.919.919,0,0,1,.275.663" transform="translate(-0.675 -3.575)" fill="#041d3a"/>
    <path id="Path_17541" data-name="Path 17541" d="M30.934,5.984a.92.92,0,0,1-.275.663L28.315,8.992a.941.941,0,0,1-1.327,0,.937.937,0,0,1-.275-.664.961.961,0,0,1,.275-.663l2.343-2.344A.964.964,0,0,1,30,5.047a.931.931,0,0,1,.663.274.92.92,0,0,1,.275.663" transform="translate(-3.575 -0.675)" fill="#041d3a"/>
    <path id="Path_17542" data-name="Path 17542" d="M9.443,21.727V13.667H11.07V16.84h3.189V13.667h1.627v8.061H14.259V18.2H11.07v3.524Z" transform="translate(-1.264 -1.829)" fill="#041d3a"/>
    <path id="Path_17543" data-name="Path 17543" d="M18.831,21.728V13.667h3.425a5.863,5.863,0,0,1,1.878.217,1.845,1.845,0,0,1,.937.773,2.314,2.314,0,0,1,.352,1.27,2.153,2.153,0,0,1-.533,1.5,2.56,2.56,0,0,1-1.595.745,3.787,3.787,0,0,1,.871.676,9.135,9.135,0,0,1,.927,1.309l.984,1.572H24.131l-1.176-1.754A11.556,11.556,0,0,0,22.1,18.79a1.25,1.25,0,0,0-.49-.336,2.7,2.7,0,0,0-.819-.091h-.33v3.365Zm1.628-4.651h1.2a6.228,6.228,0,0,0,1.462-.1.868.868,0,0,0,.456-.341,1.049,1.049,0,0,0,.165-.6.968.968,0,0,0-.217-.657,1,1,0,0,0-.613-.315q-.2-.029-1.188-.028h-1.27Z" transform="translate(-2.52 -1.829)" fill="#041d3a"/>
  </g>
</svg>
