<svg xmlns="http://www.w3.org/2000/svg" width="48" height="48" viewBox="0 0 48 48">
  <g id="icon4" transform="translate(0)">
    <rect id="Rectangle_1903" data-name="Rectangle 1903" width="48" height="48" rx="8" transform="translate(0 0)" fill="rgba(79,159,183,0.5)"/>
    <path id="Path_17687" data-name="Path 17687" d="M26.53,29.54H21.89" transform="translate(0 -0.154)" fill="none" stroke="#041d3a" stroke-linecap="round" stroke-linejoin="round" stroke-width="1.5"/>
    <path id="Path_17688" data-name="Path 17688" d="M30,33a3.459,3.459,0,1,0-3.473-3.459A3.466,3.466,0,0,0,30,33Z" transform="translate(0 -0.154)" fill="none" stroke="#041d3a" stroke-linecap="round" stroke-linejoin="round" stroke-width="1.5" fill-rule="evenodd"/>
    <path id="Path_17689" data-name="Path 17689" d="M30,22v4.08" transform="translate(0 -0.154)" fill="none" stroke="#041d3a" stroke-linecap="round" stroke-linejoin="round" stroke-width="1.5"/>
    <path id="Path_17690" data-name="Path 17690" d="M18,21.918a3.459,3.459,0,1,0-3.473-3.459A3.466,3.466,0,0,0,18,21.918Z" transform="translate(0 -0.154)" fill="none" stroke="#041d3a" stroke-linecap="round" stroke-linejoin="round" stroke-width="1.5" fill-rule="evenodd"/>
    <path id="Path_17691" data-name="Path 17691" d="M18,26V22" transform="translate(0 -0.154)" fill="none" stroke="#041d3a" stroke-linecap="round" stroke-linejoin="round" stroke-width="1.5"/>
    <path id="Path_17692" data-name="Path 17692" d="M20,33H16a2,2,0,0,1-2-2h0a2,2,0,0,1,2-2h4a2,2,0,0,1,2,2h0A2,2,0,0,1,20,33Z" transform="translate(0 -0.154)" fill="none" stroke="#041d3a" stroke-linecap="round" stroke-linejoin="round" stroke-width="1.5" fill-rule="evenodd"/>
    <path id="Path_17693" data-name="Path 17693" d="M14.007,30.834l.236-2.991A2,2,0,0,1,16.236,26h3.527a2,2,0,0,1,1.994,1.843l.236,2.991" transform="translate(0 -0.154)" fill="none" stroke="#041d3a" stroke-linecap="round" stroke-linejoin="round" stroke-width="1.5"/>
    <path id="Path_17694" data-name="Path 17694" d="M32,22H28a2,2,0,0,1-2-2h0a2,2,0,0,1,2-2h4a2,2,0,0,1,2,2h0A2,2,0,0,1,32,22Z" transform="translate(0 -0.154)" fill="none" stroke="#041d3a" stroke-linecap="round" stroke-linejoin="round" stroke-width="1.5" fill-rule="evenodd"/>
    <path id="Path_17695" data-name="Path 17695" d="M26.007,19.834l.236-2.991A2,2,0,0,1,28.236,15h3.527a2,2,0,0,1,1.994,1.843l.236,2.991" transform="translate(0 -0.154)" fill="none" stroke="#041d3a" stroke-linecap="round" stroke-linejoin="round" stroke-width="1.5"/>
  </g>
</svg>
