<svg id="icon1" xmlns="http://www.w3.org/2000/svg" width="48" height="48" viewBox="0 0 48 48">
  <rect id="Rectangle_1899" data-name="Rectangle 1899" width="48" height="48" rx="8" fill="#4f9fb7"/>
  <path id="Path_17669" data-name="Path 17669" d="M30.561,13.03a1.022,1.022,0,0,1,1.294.785,1.242,1.242,0,0,1-.874,1.43l-2.538,1.1a.217.217,0,0,1-.168,0,.213.213,0,0,1-.119-.113l-.071-.154a.2.2,0,0,1-.018-.084.2.2,0,0,1,.013-.084.221.221,0,0,1,.045-.071.208.208,0,0,1,.074-.045l1.541-.663a2.812,2.812,0,0,1-.212-.587A1.267,1.267,0,0,1,30.561,13.03Zm.227,1.649a.619.619,0,0,0,.321-.264h0a.621.621,0,0,0,.082-.408.4.4,0,0,0-.064-.168A.389.389,0,0,0,31,13.713a.442.442,0,0,0-.168-.062.428.428,0,0,0-.18.017.552.552,0,0,0-.223.084.577.577,0,0,0-.242.629,1.647,1.647,0,0,0,.2.471ZM17.294,23.615V19.254a.431.431,0,0,0-.128-.3.436.436,0,0,0-.3-.126H14.728a.438.438,0,0,0-.435.434v4.352a3.859,3.859,0,0,1-3.868,3.858H7.444a.442.442,0,0,0-.168.03.459.459,0,0,0-.145.094.422.422,0,0,0-.1.141A.4.4,0,0,0,7,27.906V30.04a.436.436,0,0,0,.126.307.443.443,0,0,0,.305.128h2.983a7.739,7.739,0,0,0,2.14-.275V27.584a.248.248,0,0,1,.073-.165.24.24,0,0,1,.167-.067h3.55A7.346,7.346,0,0,0,17.294,23.615Zm-1.38,9h-.29a.075.075,0,0,0-.042.014.06.06,0,0,0-.027.035l-.591,1.465-.636-1.47a.06.06,0,0,0-.027-.032.07.07,0,0,0-.042-.013h-.294a.055.055,0,0,0-.029,0,.073.073,0,0,0-.025.015.062.062,0,0,0-.015.025.043.043,0,0,0,0,.028v2.3a.07.07,0,0,0,.006.029.068.068,0,0,0,.016.025.069.069,0,0,0,.024.017.072.072,0,0,0,.029.005h.241a.078.078,0,0,0,.028-.005.09.09,0,0,0,.041-.04.074.074,0,0,0,.006-.029V33.664l.431,1.007a.074.074,0,0,0,.027.034.071.071,0,0,0,.042.012h.3a.074.074,0,0,0,.042-.014.07.07,0,0,0,.027-.035l.414-1.028v1.343a.082.082,0,0,0,.005.029.078.078,0,0,0,.017.025.066.066,0,0,0,.024.016.079.079,0,0,0,.029.005h.263a.082.082,0,0,0,.029-.005.074.074,0,0,0,.025-.017.076.076,0,0,0,.022-.052V32.691a.08.08,0,0,0-.022-.052A.073.073,0,0,0,15.913,32.616Zm4.209.032a.073.073,0,0,1,.023.051V34.07a1.284,1.284,0,0,1-.1.6.725.725,0,0,1-.3.285,1,1,0,0,1-.473.1,1.349,1.349,0,0,1-.475-.081.653.653,0,0,1-.335-.263,1.128,1.128,0,0,1-.111-.579V32.69a.1.1,0,0,1,0-.028.071.071,0,0,1,.015-.023.051.051,0,0,1,.025-.017.05.05,0,0,1,.029,0h.307a.065.065,0,0,1,.028.005.063.063,0,0,1,.024.017.07.07,0,0,1,.017.023.067.067,0,0,1,.006.029v1.4a.883.883,0,0,0,.052.4.337.337,0,0,0,.168.138.674.674,0,0,0,.5,0,.285.285,0,0,0,.146-.144,1.314,1.314,0,0,0,.052-.49V32.7a.062.062,0,0,1,0-.03.069.069,0,0,1,.015-.023.066.066,0,0,1,.025-.017.05.05,0,0,1,.029,0h.275l0,0A.075.075,0,0,1,20.122,32.648Zm3.8.114a1.454,1.454,0,0,0-.713-.136h-.629a.08.08,0,0,0-.029.005.077.077,0,0,0-.025.016.083.083,0,0,0-.016.025.084.084,0,0,0-.005.029v2.286a.077.077,0,0,0,.076.077h.672a1.237,1.237,0,0,0,.694-.167,1,1,0,0,0,.353-.436,1.749,1.749,0,0,0,0-1.29A.918.918,0,0,0,23.926,32.762Zm.035,1.1h0a1.2,1.2,0,0,1-.079.467.5.5,0,0,1-.212.253.939.939,0,0,1-.438.082h-.267V33.006h.268a.9.9,0,0,1,.459.089.53.53,0,0,1,.2.277A1.505,1.505,0,0,1,23.962,33.86Zm3.963-1.215a.071.071,0,0,1,.027.035l.873,2.283a.066.066,0,0,1,0,.035.081.081,0,0,1-.013.035.1.1,0,0,1-.027.025.073.073,0,0,1-.035.008h-.322a.079.079,0,0,1-.044-.013.078.078,0,0,1-.027-.035l-.218-.582h-.9l-.243.584a.066.066,0,0,1-.027.033.071.071,0,0,1-.04.013h-.278a.071.071,0,0,1-.062-.033A.093.093,0,0,1,26.573,35a.1.1,0,0,1,0-.035l.939-2.285a.071.071,0,0,1,.027-.035.077.077,0,0,1,.042-.014h.3A.094.094,0,0,1,27.925,32.646Zm-.229.636-.318.78h.612Zm5.138-.088a.919.919,0,0,0-.362-.416,1.449,1.449,0,0,0-.713-.134h-.636a.066.066,0,0,0-.029.005.064.064,0,0,0-.023.017.071.071,0,0,0-.018.023.074.074,0,0,0-.006.029V35a.084.084,0,0,0,.024.054.076.076,0,0,0,.054.022H31.8a1.245,1.245,0,0,0,.694-.168,1.007,1.007,0,0,0,.356-.436,1.645,1.645,0,0,0,.121-.627A1.552,1.552,0,0,0,32.834,33.193Zm-.413,1.146a.5.5,0,0,1-.212.253.915.915,0,0,1-.438.081h-.278V33.019h.268a.87.87,0,0,1,.456.089.515.515,0,0,1,.208.277l0,0a1.446,1.446,0,0,1,.071.483,1.2,1.2,0,0,1-.079.468Zm.826-16.493a5.576,5.576,0,0,1,4.464,1.31,6.3,6.3,0,0,1,2.308,5.485,6.465,6.465,0,0,1-1.845,4.036,6.339,6.339,0,0,1-4.657,2.013c-2.369.029-4.739.014-7.11-.012a5.535,5.535,0,0,1-3.031-1.032A7.141,7.141,0,0,1,21.925,28.4c-.037-.051-.072-.1-.1-.154l-.224.241a7.132,7.132,0,0,1-1.092.985,6.621,6.621,0,0,1-1.057.622,4.644,4.644,0,0,1-1.174.412l-.069.01-.079.013a9.063,9.063,0,0,1-1.378.133H13.319a.215.215,0,0,1-.213-.215V27.883a.222.222,0,0,1,.065-.149.217.217,0,0,1,.151-.06h3.431a3.635,3.635,0,0,0,1.51-.335,3.562,3.562,0,0,0,1.99-2.881q.059-.7.047-1.411c.008-.783.005-1.566,0-2.349q0-.587,0-1.174a1.206,1.206,0,0,1,0-.168.4.4,0,0,1,.413-.376h.611c.152,0,.3,0,.455,0,.3,0,.6.009.9,0,.533-.026.656.2.647.636-.022,1.2-.035,2.411-.035,3.62a9.377,9.377,0,0,0,.152,1.661,3.623,3.623,0,0,0,3.112,2.8,10.416,10.416,0,0,0,1.051.023l.36,0h5.449a3.627,3.627,0,0,0,3.642-3.534,3.41,3.41,0,0,0-1.089-2.628,3.01,3.01,0,0,0-4,0,3.713,3.713,0,0,0-.116,5.3,1.7,1.7,0,0,1,.183.193.209.209,0,0,1,.027.215.217.217,0,0,1-.074.086.222.222,0,0,1-.106.034,1.159,1.159,0,0,1-.186,0h-2.9a.4.4,0,0,1-.25-.054.389.389,0,0,1-.168-.2,6.814,6.814,0,0,1,1.413-7.69A5.807,5.807,0,0,1,33.247,17.846Z" transform="translate(-0.153)" fill="#fff" fill-rule="evenodd"/>
</svg>
