<svg xmlns="http://www.w3.org/2000/svg" xmlns:xlink="http://www.w3.org/1999/xlink" width="56" height="56" viewBox="0 0 56 56">
  <defs>
    <linearGradient id="linear-gradient" x1="0.5" y1="0.5" x2="0.5" y2="1" gradientUnits="objectBoundingBox">
      <stop offset="0" stop-color="#dc9b23"/>
      <stop offset="1" stop-color="#6e4e12"/>
    </linearGradient>
  </defs>
  <g id="Tasks" transform="translate(16 16)">
    <rect id="Active_bg" data-name="Active bg" width="56" height="56" rx="12" transform="translate(-16 -16)" fill="url(#linear-gradient)"/>
    <path id="Money_pouch" data-name="Money pouch" d="M19.83,8.984a2.122,2.122,0,0,0,.983-.373,7.6,7.6,0,0,0,1.544-1.3,11.275,11.275,0,0,0,2.466-4.105,2.118,2.118,0,0,0-.725-.475A11.009,11.009,0,0,0,19.83,2a11.008,11.008,0,0,0-4.268.732,2.12,2.12,0,0,0-.725.476A11.276,11.276,0,0,0,17.3,7.313a7.6,7.6,0,0,0,1.544,1.3A2.122,2.122,0,0,0,19.83,8.984Zm0,3.492a9.541,9.541,0,0,0-4.679,1.636,23.516,23.516,0,0,0-5.312,4.6C6.458,22.591,4,27.618,4,32.458c0,2.276,1.668,4.536,4.847,6.334a23.057,23.057,0,0,0,21.966,0c3.179-1.8,4.847-4.058,4.847-6.334,0-4.839-2.458-9.867-5.84-13.75a23.514,23.514,0,0,0-5.312-4.6A9.542,9.542,0,0,0,19.83,12.476Zm3.721,20.452A5.731,5.731,0,0,1,21.314,34v1.642a1.484,1.484,0,1,1-2.968,0V33.958a5.4,5.4,0,0,1-1.756-.807,6.2,6.2,0,0,1-2.074-2.625,1.484,1.484,0,0,1,2.714-1.2,3.255,3.255,0,0,0,1.065,1.4,2.8,2.8,0,0,0,1.664.466,2.868,2.868,0,0,0,1.75-.586,1.338,1.338,0,0,0,.595-1c0-.75-.235-1-.4-1.122a2.583,2.583,0,0,0-1.483-.333A5.675,5.675,0,0,1,16.268,26.7,4.426,4.426,0,0,1,15,23.519a3.99,3.99,0,0,1,1.38-3.055,4.62,4.62,0,0,1,1.963-.981V17.83a1.484,1.484,0,0,1,2.968,0v1.611a5.52,5.52,0,0,1,1.274.391,4.793,4.793,0,0,1,2.186,2,1.484,1.484,0,1,1-2.558,1.505,1.832,1.832,0,0,0-.849-.8,3.685,3.685,0,0,0-1.438-.254,2.326,2.326,0,0,0-1.6.425,1.024,1.024,0,0,0-.354.81,1.467,1.467,0,0,0,.391,1.075,2.8,2.8,0,0,0,2.055.584,5.451,5.451,0,0,1,3.23.9A4.144,4.144,0,0,1,25.272,29.6,4.281,4.281,0,0,1,23.551,32.928Z" transform="translate(-7.83 -9.788)" fill="#fff" fill-rule="evenodd"/>
  </g>
</svg>
