<svg xmlns="http://www.w3.org/2000/svg" xmlns:xlink="http://www.w3.org/1999/xlink" width="56" height="56" viewBox="0 0 56 56">
  <defs>
    <clipPath id="clip-path">
      <rect id="Rectangle_1614" data-name="Rectangle 1614" width="49.632" height="49.632" fill="#73cce6"/>
    </clipPath>
  </defs>
  <g id="Group_7060" data-name="Group 7060" transform="translate(-16948 4969)">
    <g id="Group_6951" data-name="Group 6951" transform="translate(156)">
      <g id="Group_6949" data-name="Group 6949" transform="translate(154 122)">
        <rect id="Active_bg" data-name="Active bg" width="56" height="56" rx="12" transform="translate(16638 -5091)"/>
        <g id="Group_6269" data-name="Group 6269" transform="translate(16641.184 -5087.816)">
          <g id="Group_6268" data-name="Group 6268" clip-path="url(#clip-path)">
            <path id="Path_17508" data-name="Path 17508" d="M20.171,1.467V6.655a1.466,1.466,0,1,1-2.933,0V1.467a1.466,1.466,0,1,1,2.933,0" transform="translate(6.112)" fill="#73cce6"/>
            <path id="Path_17509" data-name="Path 17509" d="M20.171,32.111V37.3a1.468,1.468,0,0,1-2.5,1.038,1.444,1.444,0,0,1-.428-1.038V32.111a1.466,1.466,0,0,1,2.933,0" transform="translate(6.112 10.867)" fill="#73cce6"/>
            <path id="Path_17510" data-name="Path 17510" d="M11.217,11.217a1.5,1.5,0,0,1-2.075,0L5.475,7.551A1.468,1.468,0,1,1,7.551,5.475l3.666,3.667a1.463,1.463,0,0,1,0,2.075" transform="translate(1.789 1.789)" fill="#73cce6"/>
            <path id="Path_17511" data-name="Path 17511" d="M32.884,32.884a1.463,1.463,0,0,1-2.075,0l-3.667-3.666a1.468,1.468,0,0,1,2.077-2.077l3.666,3.667a1.463,1.463,0,0,1,0,2.075" transform="translate(9.473 9.473)" fill="#73cce6"/>
            <path id="Path_17512" data-name="Path 17512" d="M8.122,18.7a1.479,1.479,0,0,1-1.467,1.467H1.467a1.467,1.467,0,1,1,0-2.934H6.655A1.471,1.471,0,0,1,8.122,18.7" transform="translate(0 6.112)" fill="#73cce6"/>
            <path id="Path_17513" data-name="Path 17513" d="M38.766,18.7A1.478,1.478,0,0,1,37.3,20.171H32.111a1.467,1.467,0,1,1,0-2.934H37.3A1.464,1.464,0,0,1,38.766,18.7" transform="translate(10.866 6.112)" fill="#73cce6"/>
            <path id="Path_17514" data-name="Path 17514" d="M11.646,28.18a1.417,1.417,0,0,1-.429,1.038L7.551,32.884a1.5,1.5,0,0,1-2.075,0,1.455,1.455,0,0,1,0-2.064l3.666-3.678a1.5,1.5,0,0,1,1.038-.428,1.457,1.457,0,0,1,1.038.428,1.437,1.437,0,0,1,.429,1.038" transform="translate(1.789 9.473)" fill="#73cce6"/>
            <path id="Path_17515" data-name="Path 17515" d="M33.314,6.513a1.438,1.438,0,0,1-.431,1.038l-3.664,3.667a1.472,1.472,0,0,1-2.075,0,1.465,1.465,0,0,1-.431-1.039,1.5,1.5,0,0,1,.431-1.038l3.664-3.666a1.508,1.508,0,0,1,1.039-.428,1.456,1.456,0,0,1,1.036.428,1.438,1.438,0,0,1,.431,1.038" transform="translate(9.472 1.79)" fill="#73cce6"/>
          </g>
        </g>
      </g>
    </g>
    <g id="UI_icon_growth_light" data-name="UI icon/growth/light" transform="translate(16966 -4951)">
      <path id="Vector_606_Stroke_" data-name="Vector 606 (Stroke)" d="M1,0A1,1,0,0,1,2,1V17a1,1,0,0,0,1,1H19a1,1,0,0,1,0,2H3a3,3,0,0,1-3-3V1A1,1,0,0,1,1,0Z" fill="#73cce6"/>
      <path id="Union" d="M11,0a1,1,0,1,0,0,2h1.586L8.5,6.086,5.914,3.5a2,2,0,0,0-2.828,0L.293,6.293A1,1,0,0,0,1.707,7.707L4.5,4.914,7.086,7.5a2,2,0,0,0,2.828,0L14,3.414V5a1,1,0,0,0,2,0V1a1,1,0,0,0-1-1Z" transform="translate(4 4.5)" fill="#73cce6"/>
    </g>
  </g>
</svg>
